{
   "initial-conditions": [
      {
         "tail": "OWNSHIP",
         "latitude": 35.3050053,
         "longitude": -120.66249419999997,
         "altitude": 41500,
         "velocity": {
            "north": 1,
            "east": 0,
            "down": 0
         }
      },
      {
         "tail": "C83TF",
         "latitude": 35.313366673271325,
         "longitude": -120.69384530127427,
         "altitude": 43000,
         "velocity": {
            "north": 144.22045179007463,
            "east": -96.36502503719798,
            "down": 444.8825611720996
         },
         "sensors": {
            "adsb": true,
            "radar": true,
            "tcas": true
         }
      },
      {
         "tail": "R70AK",
         "latitude": 35.27420618121745,
         "longitude": -120.67483653480254,
         "altitude": 38500,
         "velocity": {
            "north": -60.102492598645966,
            "east": 5.522643246881251,
            "down": -471.1498602302641
         },
         "sensors": {
            "adsb": true,
            "radar": true,
            "tcas": true
         }
      },
      {
         "tail": "G23HV",
         "latitude": 35.27911543398475,
         "longitude": -120.66528574892386,
         "altitude": 18750,
         "velocity": {
            "north": 231.70953315679452,
            "east": -173.02571504631018,
            "down": -21.743830779635033
         },
         "sensors": {
            "adsb": true,
            "radar": true,
            "tcas": true
         }
      },
      {
         "tail": "R93YW",
         "latitude": 35.34444714400218,
         "longitude": -120.64005034435297,
         "altitude": 40500,
         "velocity": {
            "north": 636.2474077497382,
            "east": 273.35345895279414,
            "down": -4.834522756338375
         },
         "sensors": {
            "adsb": true,
            "radar": true,
            "tcas": true
         }
      },
      {
         "tail": "R47YB",
         "latitude": 35.271392811599654,
         "longitude": -120.65224455581192,
         "altitude": 7000,
         "velocity": {
            "north": -37.93599213074615,
            "east": 9.458505153833558,
            "down": -168.0108543556364
         },
         "sensors": {
            "adsb": true,
            "radar": true,
            "tcas": true
         }
      },
      {
         "tail": "S83IB",
         "latitude": 35.34152061640207,
         "longitude": -120.66749691215178,
         "altitude": 38250,
         "velocity": {
            "north": -196.508089932368,
            "east": -398.4789872509005,
            "down": 245.2658095019137
         },
         "sensors": {
            "adsb": true,
            "radar": true,
            "tcas": true
         }
      },
      {
         "tail": "S63SZ",
         "latitude": 35.338717673483764,
         "longitude": -120.7015628956234,
         "altitude": 28500,
         "velocity": {
            "north": -131.2972569914816,
            "east": 329.09917387997655,
            "down": 265.0679423431468
         },
         "sensors": {
            "adsb": true,
            "radar": true,
            "tcas": true
         }
      }
   ],
   "checkpoints": []
}