{
   "initial-conditions": [
      {
         "tail": "OWNSHIP",
         "latitude": 35.3050053,
         "longitude": -120.66249419999997,
         "altitude": 5750,
         "velocity": {
            "north": 1,
            "east": 0,
            "down": 0
         }
      },
      {
         "tail": "L83BI",
         "latitude": 35.32033618642172,
         "longitude": -120.68438678821306,
         "altitude": 31750,
         "velocity": {
            "north": 298.4070563422354,
            "east": 438.26946371968023,
            "down": 172.27697436403318
         },
         "sensors": {
            "adsb": true,
            "radar": true,
            "tcas": true
         }
      },
      {
         "tail": "S19TD",
         "latitude": 35.28209599508128,
         "longitude": -120.67814047278904,
         "altitude": 27750,
         "velocity": {
            "north": -810.0391879798082,
            "east": 81.56665722065722,
            "down": -74.09213431168529
         },
         "sensors": {
            "adsb": true,
            "radar": true,
            "tcas": true
         }
      },
      {
         "tail": "S77OK",
         "latitude": 35.293905745929415,
         "longitude": -120.63085302510056,
         "altitude": 7250,
         "velocity": {
            "north": -28.087843843487835,
            "east": 89.08325954359559,
            "down": 771.8688333501439
         },
         "sensors": {
            "adsb": true,
            "radar": true,
            "tcas": true
         }
      },
      {
         "tail": "X97CZ",
         "latitude": 35.29830769682458,
         "longitude": -120.66739931578194,
         "altitude": 11750,
         "velocity": {
            "north": -45.98168039231713,
            "east": -0.20063420287705636,
            "down": 304.0425871719543
         },
         "sensors": {
            "adsb": true,
            "radar": true,
            "tcas": true
         }
      },
      {
         "tail": "S37HA",
         "latitude": 35.28844813782256,
         "longitude": -120.68535404155408,
         "altitude": 40000,
         "velocity": {
            "north": -380.6951916297317,
            "east": 322.28226914511384,
            "down": -193.46914499391943
         },
         "sensors": {
            "adsb": true,
            "radar": true,
            "tcas": true
         }
      },
      {
         "tail": "L26FZ",
         "latitude": 35.33436920925509,
         "longitude": -120.6700973524222,
         "altitude": 29750,
         "velocity": {
            "north": 18.653153376151902,
            "east": -170.3207276465898,
            "down": -451.053388861077
         },
         "sensors": {
            "adsb": true,
            "radar": true,
            "tcas": true
         }
      },
      {
         "tail": "C28JG",
         "latitude": 35.32538467433148,
         "longitude": -120.65529764151579,
         "altitude": 38250,
         "velocity": {
            "north": -196.44326672890412,
            "east": 159.07662082573452,
            "down": -751.1064649325967
         },
         "sensors": {
            "adsb": true,
            "radar": true,
            "tcas": true
         }
      },
      {
         "tail": "X19GM",
         "latitude": 35.285482946629635,
         "longitude": -120.69260613475683,
         "altitude": 13500,
         "velocity": {
            "north": 449.32959447924503,
            "east": 224.02747176145823,
            "down": -701.2994064030614
         },
         "sensors": {
            "adsb": true,
            "radar": true,
            "tcas": true
         }
      }
   ],
   "checkpoints": []
}