{
   "initial-conditions": [
      {
         "tail": "OWNSHIP",
         "latitude": 35.3050053,
         "longitude": -120.66249419999997,
         "altitude": 4250,
         "velocity": {
            "north": 1,
            "east": 0,
            "down": 0
         }
      },
      {
         "tail": "L77LE",
         "latitude": 35.304268066827206,
         "longitude": -120.6684452636376,
         "altitude": 43750,
         "velocity": {
            "north": 188.27429400431487,
            "east": -4.6113902302822386e-14,
            "down": -330.0799754865127
         },
         "sensors": {
            "adsb": true,
            "radar": true,
            "tcas": true
         }
      },
      {
         "tail": "S66RN",
         "latitude": 35.30337820376114,
         "longitude": -120.65754557718124,
         "altitude": 3500,
         "velocity": {
            "north": -87.22157736477774,
            "east": -620.6137707199297,
            "down": 190.4099368068554
         },
         "sensors": {
            "adsb": true,
            "radar": true,
            "tcas": true
         }
      },
      {
         "tail": "R78DF",
         "latitude": 35.317277338753144,
         "longitude": -120.64870064664234,
         "altitude": 34750,
         "velocity": {
            "north": 494.1426807239885,
            "east": 400.1488529704641,
            "down": -552.7297319245024
         },
         "sensors": {
            "adsb": true,
            "radar": true,
            "tcas": true
         }
      },
      {
         "tail": "C21EW",
         "latitude": 35.292207217435354,
         "longitude": -120.6633759045561,
         "altitude": 39500,
         "velocity": {
            "north": 682.8083017849402,
            "east": -80.8156881757149,
            "down": -186.80978978161616
         },
         "sensors": {
            "adsb": true,
            "radar": true,
            "tcas": true
         }
      },
      {
         "tail": "L10YN",
         "latitude": 35.29773778705237,
         "longitude": -120.67615678899213,
         "altitude": 40500,
         "velocity": {
            "north": 72.40046085623943,
            "east": -44.367059474397784,
            "down": -672.1577101405587
         },
         "sensors": {
            "adsb": true,
            "radar": true,
            "tcas": true
         }
      },
      {
         "tail": "R69PF",
         "latitude": 35.30183265854294,
         "longitude": -120.6771664341344,
         "altitude": 42500,
         "velocity": {
            "north": 234.97097141860394,
            "east": -361.82356640098635,
            "down": -281.242509922431
         },
         "sensors": {
            "adsb": true,
            "radar": true,
            "tcas": true
         }
      },
      {
         "tail": "X99DE",
         "latitude": 35.319213206260464,
         "longitude": -120.67877442120175,
         "altitude": 36000,
         "velocity": {
            "north": 80.50159903286804,
            "east": 36.26332618389404,
            "down": 151.09422135618505
         },
         "sensors": {
            "adsb": true,
            "radar": true,
            "tcas": true
         }
      },
      {
         "tail": "C37IQ",
         "latitude": 35.290586740346626,
         "longitude": -120.64969812414832,
         "altitude": 26500,
         "velocity": {
            "north": -253.58220038870328,
            "east": 220.43564374415655,
            "down": 106.58538648953169
         },
         "sensors": {
            "adsb": true,
            "radar": true,
            "tcas": true
         }
      },
      {
         "tail": "S27MX",
         "latitude": 35.29279115094648,
         "longitude": -120.66252327361677,
         "altitude": 24250,
         "velocity": {
            "north": 163.55745843620684,
            "east": 89.7306943910134,
            "down": -353.83239008603357
         },
         "sensors": {
            "adsb": true,
            "radar": true,
            "tcas": true
         }
      }
   ],
   "checkpoints": []
}