{
   "initial-conditions": [
      {
         "tail": "OWNSHIP",
         "latitude": 35.3050053,
         "longitude": -120.66249419999997,
         "altitude": 19250,
         "velocity": {
            "north": 1,
            "east": 0,
            "down": 0
         }
      },
      {
         "tail": "S91SA",
         "latitude": 35.30990102919905,
         "longitude": -120.69212573339608,
         "altitude": 36000,
         "velocity": {
            "north": -77.64659759655352,
            "east": 216.26368696981604,
            "down": -761.0690005379935
         },
         "sensors": {
            "adsb": true,
            "radar": true,
            "tcas": true
         }
      },
      {
         "tail": "L44DS",
         "latitude": 35.29459562303343,
         "longitude": -120.6633729773394,
         "altitude": 4250,
         "velocity": {
            "north": -74.96854479702,
            "east": 58.57184649003669,
            "down": 534.0929751361318
         },
         "sensors": {
            "adsb": true,
            "radar": true,
            "tcas": true
         }
      },
      {
         "tail": "R25FY",
         "latitude": 35.306758230507064,
         "longitude": -120.68079368268518,
         "altitude": 36500,
         "velocity": {
            "north": 101.32838471206412,
            "east": -260.5655090193258,
            "down": 435.481829656696
         },
         "sensors": {
            "adsb": true,
            "radar": true,
            "tcas": true
         }
      },
      {
         "tail": "L93PA",
         "latitude": 35.276482672664955,
         "longitude": -120.68688961830678,
         "altitude": 20000,
         "velocity": {
            "north": 24.942968367851822,
            "east": 60.96873580654962,
            "down": -389.46843464284945
         },
         "sensors": {
            "adsb": true,
            "radar": true,
            "tcas": true
         }
      },
      {
         "tail": "X26DU",
         "latitude": 35.31976936580768,
         "longitude": -120.64415717483254,
         "altitude": 3000,
         "velocity": {
            "north": -333.59134448902165,
            "east": 134.77965188517513,
            "down": 150.50335650648427
         },
         "sensors": {
            "adsb": true,
            "radar": true,
            "tcas": true
         }
      },
      {
         "tail": "G31SX",
         "latitude": 35.33435039048548,
         "longitude": -120.67605044871014,
         "altitude": 4750,
         "velocity": {
            "north": 38.32164881991937,
            "east": -156.6076527264656,
            "down": -80.03433225328695
         },
         "sensors": {
            "adsb": true,
            "radar": true,
            "tcas": true
         }
      },
      {
         "tail": "L22SV",
         "latitude": 35.31973824245079,
         "longitude": -120.64875754122379,
         "altitude": 36750,
         "velocity": {
            "north": 125.99816459810843,
            "east": 78.73239145418479,
            "down": 77.34289271686818
         },
         "sensors": {
            "adsb": true,
            "radar": true,
            "tcas": true
         }
      },
      {
         "tail": "S20FB",
         "latitude": 35.307941136138204,
         "longitude": -120.68466306385962,
         "altitude": 33250,
         "velocity": {
            "north": -364.2740354576192,
            "east": -111.36974909815417,
            "down": -651.8636407081126
         },
         "sensors": {
            "adsb": true,
            "radar": true,
            "tcas": true
         }
      },
      {
         "tail": "G81LT",
         "latitude": 35.28964104040991,
         "longitude": -120.6432329152376,
         "altitude": 25500,
         "velocity": {
            "north": 417.3106849363573,
            "east": 389.14850930959386,
            "down": 560.7274114398807
         },
         "sensors": {
            "adsb": true,
            "radar": true,
            "tcas": true
         }
      }
   ],
   "checkpoints": []
}