{
   "initial-conditions": [
      {
         "tail": "OWNSHIP",
         "latitude": 35.3050053,
         "longitude": -120.66249419999997,
         "altitude": 35250,
         "velocity": {
            "north": 1,
            "east": 0,
            "down": 0
         }
      },
      {
         "tail": "L40OU",
         "latitude": 35.298527017900874,
         "longitude": -120.64278223712219,
         "altitude": 32500,
         "velocity": {
            "north": 404.27173629400784,
            "east": -3.528025994178187,
            "down": 24.01908129826446
         },
         "sensors": {
            "adsb": true,
            "radar": true,
            "tcas": true
         }
      },
      {
         "tail": "L17SR",
         "latitude": 35.28739824553641,
         "longitude": -120.6806508348299,
         "altitude": 48000,
         "velocity": {
            "north": -84.07440246795512,
            "east": -30.600579962052603,
            "down": -192.7468530369363
         },
         "sensors": {
            "adsb": true,
            "radar": true,
            "tcas": true
         }
      },
      {
         "tail": "L14NF",
         "latitude": 35.32964366212409,
         "longitude": -120.65994858479583,
         "altitude": 42000,
         "velocity": {
            "north": 580.5603951058346,
            "east": 228.68882135933816,
            "down": -276.5091329772562
         },
         "sensors": {
            "adsb": true,
            "radar": true,
            "tcas": true
         }
      },
      {
         "tail": "C76RB",
         "latitude": 35.30322054452418,
         "longitude": -120.67168952217082,
         "altitude": 15750,
         "velocity": {
            "north": 174.14337311347643,
            "east": 255.7638002274587,
            "down": 59.02511409450326
         },
         "sensors": {
            "adsb": true,
            "radar": true,
            "tcas": true
         }
      },
      {
         "tail": "S58FP",
         "latitude": 35.31605508095973,
         "longitude": -120.65367512645655,
         "altitude": 31250,
         "velocity": {
            "north": -43.63302984752981,
            "east": 498.7278132852122,
            "down": -287.87666970783704
         },
         "sensors": {
            "adsb": true,
            "radar": true,
            "tcas": true
         }
      },
      {
         "tail": "S89RT",
         "latitude": 35.30530055820864,
         "longitude": -120.65076362812881,
         "altitude": 48250,
         "velocity": {
            "north": 519.294458350195,
            "east": 156.28989241434198,
            "down": -149.37531608632995
         },
         "sensors": {
            "adsb": true,
            "radar": true,
            "tcas": true
         }
      },
      {
         "tail": "G86FB",
         "latitude": 35.310509677698526,
         "longitude": -120.64603286246758,
         "altitude": 26000,
         "velocity": {
            "north": 124.15858926075606,
            "east": 57.89610099801152,
            "down": 504.2211183617827
         },
         "sensors": {
            "adsb": true,
            "radar": true,
            "tcas": true
         }
      },
      {
         "tail": "C52LJ",
         "latitude": 35.28414863269,
         "longitude": -120.6809398642484,
         "altitude": 45750,
         "velocity": {
            "north": -41.19630404580891,
            "east": 348.06581544135975,
            "down": 397.5588669041436
         },
         "sensors": {
            "adsb": true,
            "radar": true,
            "tcas": true
         }
      },
      {
         "tail": "G91WJ",
         "latitude": 35.289792548272914,
         "longitude": -120.66462224338659,
         "altitude": 49250,
         "velocity": {
            "north": -124.89292626631648,
            "east": 15.33492311148852,
            "down": -812.8178437397896
         },
         "sensors": {
            "adsb": true,
            "radar": true,
            "tcas": true
         }
      },
      {
         "tail": "R21JB",
         "latitude": 35.32071808790943,
         "longitude": -120.68407699147696,
         "altitude": 10000,
         "velocity": {
            "north": -403.81240466693623,
            "east": 80.32328138957268,
            "down": -581.4980329321141
         },
         "sensors": {
            "adsb": true,
            "radar": true,
            "tcas": true
         }
      }
   ],
   "checkpoints": []
}