{
   "initial-conditions": [
      {
         "tail": "OWNSHIP",
         "latitude": 35.3050053,
         "longitude": -120.66249419999997,
         "altitude": 41000,
         "velocity": {
            "north": 1,
            "east": 0,
            "down": 0
         }
      },
      {
         "tail": "C50GA",
         "latitude": 35.37399797869691,
         "longitude": -120.59984734276998,
         "altitude": 46500,
         "velocity": {
            "north": 323.82838859982337,
            "east": 718.872366046248,
            "down": -80.08711551748499
         },
         "sensors": {
            "adsb": true,
            "radar": true,
            "tcas": true
         }
      },
      {
         "tail": "G25LN",
         "latitude": 35.30696114624695,
         "longitude": -120.64483660889236,
         "altitude": 7500,
         "velocity": {
            "north": -21.318257190773124,
            "east": 161.92823973294745,
            "down": 392.36434227301686
         },
         "sensors": {
            "adsb": true,
            "radar": true,
            "tcas": true
         }
      },
      {
         "tail": "R17DI",
         "latitude": 35.38596060897844,
         "longitude": -120.65065234700596,
         "altitude": 14500,
         "velocity": {
            "north": 39.10615701602894,
            "east": 156.84622894374792,
            "down": -89.97204537834574
         },
         "sensors": {
            "adsb": true,
            "radar": true,
            "tcas": true
         }
      },
      {
         "tail": "X95IK",
         "latitude": 35.33979252910707,
         "longitude": -120.71041774286955,
         "altitude": 32000,
         "velocity": {
            "north": -290.15363248461773,
            "east": -327.95902197983463,
            "down": -114.06138460500893
         },
         "sensors": {
            "adsb": true,
            "radar": true,
            "tcas": true
         }
      }
   ],
   "checkpoints": []
}