╒════╤═════════════════╤════════════════════╤════════════════════════╤═══════════════════════╤════════════╤════════════╕
│    │ num intruders   │ avg speeds (fps)   │ avg separation (nmi)   │ avg proximity (nmi)   │   tendency │   accuracy │
╞════╪═════════════════╪════════════════════╪════════════════════════╪═══════════════════════╪════════════╪════════════╡
│    │ 4               │ 588.125            │ 2.6905                 │ 2.0715                │     1.0000 │     1.0000 │
├────┼─────────────────┼────────────────────┼────────────────────────┼───────────────────────┼────────────┼────────────┤
│    │ 5               │ 559.5              │ 2.6681                 │ 3.6935                │     1.0000 │     1.0000 │
├────┼─────────────────┼────────────────────┼────────────────────────┼───────────────────────┼────────────┼────────────┤
│    │ 5               │ 465.0              │ 4.0374                 │ 2.7571                │     1.0000 │     1.0000 │
├────┼─────────────────┼────────────────────┼────────────────────────┼───────────────────────┼────────────┼────────────┤
│    │ 6               │ 462.5              │ 2.7952                 │ 2.061                 │     1.0000 │     1.0000 │
├────┼─────────────────┼────────────────────┼────────────────────────┼───────────────────────┼────────────┼────────────┤
│    │ 4               │ 463.75             │ 5.9103                 │ 5.2186                │     0.9636 │     1.0000 │
├────┼─────────────────┼────────────────────┼────────────────────────┼───────────────────────┼────────────┼────────────┤
│    │ 6               │ 392.9167           │ 7.0423                 │ 5.5628                │     0.8760 │     1.0000 │
├────┼─────────────────┼────────────────────┼────────────────────────┼───────────────────────┼────────────┼────────────┤
│    │ 5               │ 544.5              │ 5.6162                 │ 4.2357                │     0.9134 │     0.9697 │
├────┼─────────────────┼────────────────────┼────────────────────────┼───────────────────────┼────────────┼────────────┤
│    │ 6               │ 452.5              │ 2.0536                 │ 1.5709                │     1.0000 │     0.8636 │
├────┼─────────────────┼────────────────────┼────────────────────────┼───────────────────────┼────────────┼────────────┤
│    │ 4               │ 427.5              │ 3.1636                 │ 2.1617                │     0.9636 │     0.8545 │
├────┼─────────────────┼────────────────────┼────────────────────────┼───────────────────────┼────────────┼────────────┤
│    │                 │                    │                        │                       │     0.9685 │     0.9653 │
╘════╧═════════════════╧════════════════════╧════════════════════════╧═══════════════════════╧════════════╧════════════╛