{
   "initial-conditions": [
      {
         "tail": "OWNSHIP",
         "latitude": 35.3050053,
         "longitude": -120.66249419999997,
         "altitude": 18500,
         "velocity": {
            "north": 1,
            "east": 0,
            "down": 0
         }
      },
      {
         "tail": "G16AB",
         "latitude": 35.88795162122852,
         "longitude": -120.87710801615758,
         "altitude": 29750,
         "velocity": {
            "north": -656.8603308738165,
            "east": -124.70883038193676,
            "down": 92.77506857507399
         },
         "sensors": {
            "adsb": true,
            "radar": true,
            "tcas": true
         }
      },
      {
         "tail": "G39NM",
         "latitude": 35.96639796787407,
         "longitude": -121.27444523412801,
         "altitude": 35000,
         "velocity": {
            "north": 36.1865393857029,
            "east": 39.146377761621174,
            "down": 507.20616663781936
         },
         "sensors": {
            "adsb": true,
            "radar": true,
            "tcas": true
         }
      },
      {
         "tail": "L77OG",
         "latitude": 34.52133414768769,
         "longitude": -121.36586998887117,
         "altitude": 9250,
         "velocity": {
            "north": 175.49686383013437,
            "east": -239.34752171446826,
            "down": -165.87228410716912
         },
         "sensors": {
            "adsb": true,
            "radar": true,
            "tcas": true
         }
      },
      {
         "tail": "G88PB",
         "latitude": 35.67699320232651,
         "longitude": -121.13025962284833,
         "altitude": 17750,
         "velocity": {
            "north": -37.507888011981116,
            "east": -172.7508579507852,
            "down": 424.6766998719712
         },
         "sensors": {
            "adsb": true,
            "radar": true,
            "tcas": true
         }
      },
      {
         "tail": "X85VM",
         "latitude": 35.580681259807506,
         "longitude": -120.69928565127532,
         "altitude": 40250,
         "velocity": {
            "north": 105.76581001577503,
            "east": 67.38025217126557,
            "down": 23.0161910194464
         },
         "sensors": {
            "adsb": true,
            "radar": true,
            "tcas": true
         }
      }
   ],
   "checkpoints": []
}